<svg xmlns="http://www.w3.org/2000/svg" width="21" height="12" viewBox="0 0 21 12">
  <metadata><?xpacket begin="﻿" id="W5M0MpCehiHzreSzNTczkc9d"?>
<x:xmpmeta xmlns:x="adobe:ns:meta/" x:xmptk="Adobe XMP Core 5.6-c142 79.160924, 2017/07/13-01:06:39        ">
   <rdf:RDF xmlns:rdf="http://www.w3.org/1999/02/22-rdf-syntax-ns#">
      <rdf:Description rdf:about=""/>
   </rdf:RDF>
</x:xmpmeta>
                                                                                                    
                                                                                                    
                                                                                                    
                                                                                                    
                                                                                                    
                                                                                                    
                                                                                                    
                                                                                                    
                                                                                                    
                                                                                                    
                                                                                                    
                                                                                                    
                                                                                                    
                                                                                                    
                                                                                                    
                                                                                                    
                                                                                                    
                                                                                                    
                                                                                                    
                                                                                                    
                           
<?xpacket end="w"?></metadata>
<defs>
    <style>
      .cls-1 {
        fill: #fff;
        fill-rule: evenodd;
      }
    </style>
  </defs>
  <path id="vk" class="cls-1" d="M1529.98,108.87s-0.16-.439-1.11-0.318l-3.15.022a0.736,0.736,0,0,0-.42.066,0.666,0.666,0,0,0-.27.339,19.632,19.632,0,0,1-1.17,2.465c-1.4,2.388-1.97,2.519-2.2,2.366-0.54-.34-0.39-1.38-0.39-2.125,0-2.323.35-3.287-.69-3.538a5.777,5.777,0,0,0-1.48-.143,6.859,6.859,0,0,0-2.62.263c-0.36.175-.63,0.569-0.47,0.592a1.441,1.441,0,0,1,.93.47,3.159,3.159,0,0,1,.32,1.436c0.12,2.727-.44,3.067-0.44,3.067-0.42.23-1.17-.153-2.26-2.41a21.249,21.249,0,0,1-1.13-2.344,0.837,0.837,0,0,0-.26-0.351,1.167,1.167,0,0,0-.48-0.2l-3,.022a0.775,0.775,0,0,0-.62.208,0.493,0.493,0,0,0-.02.537,29.183,29.183,0,0,0,5.02,8.27s2.44,2.553,5.2,2.377h1.26a0.912,0.912,0,0,0,.58-0.241,0.828,0.828,0,0,0,.17-0.558c-0.02-1.687.76-1.939,0.76-1.939,0.77-.241,1.75,1.632,2.8,2.355a2.332,2.332,0,0,0,1.4.427l2.81-.044a0.768,0.768,0,0,0,.77-1.237,8.991,8.991,0,0,0-2.09-2.421c-1.75-1.633-1.52-1.37.6-4.2C1529.63,110.37,1530.14,109.319,1529.98,108.87Z" transform="translate(-1509 -108)"/>
</svg>
